{
  "name": "zuse",
  "css_prefix_text": "zuse-",
  "css_use_suffix": false,
  "hinting": true,
  "units_per_em": 1000,
  "ascent": 850,
  "glyphs": [
    {
      "uid": "9dd9e835aebe1060ba7190ad2b2ed951",
      "css": "search",
      "code": 59432,
      "src": "fontawesome"
    },
    {
      "uid": "17c21cd98db80e521e573eba247bd69b",
      "css": "mail-squared",
      "code": 59411,
      "src": "fontawesome"
    },
    {
      "uid": "474656633f79ea2f1dad59ff63f6bf07",
      "css": "star",
      "code": 59410,
      "src": "fontawesome"
    },
    {
      "uid": "d17030afaecc1e1c22349b99f3c4992a",
      "css": "star-empty",
      "code": 59409,
      "src": "fontawesome"
    },
    {
      "uid": "8f8278fbe5a2a0ea836be3c408b005d2",
      "css": "star-half",
      "code": 59408,
      "src": "fontawesome"
    },
    {
      "uid": "84cf1fcc3fec556e7eaeb19679ca2dc9",
      "css": "star-half-alt",
      "code": 59407,
      "src": "fontawesome"
    },
    {
      "uid": "8b80d36d4ef43889db10bc1f0dc9a862",
      "css": "user",
      "code": 59434,
      "src": "fontawesome"
    },
    {
      "uid": "31972e4e9d080eaa796290349ae6c1fd",
      "css": "users",
      "code": 59433,
      "src": "fontawesome"
    },
    {
      "uid": "12f4ece88e46abd864e40b35e05b11cd",
      "css": "ok",
      "code": 59413,
      "src": "fontawesome"
    },
    {
      "uid": "43ab845088317bd348dee1d975700c48",
      "css": "ok-circled",
      "code": 59417,
      "src": "fontawesome"
    },
    {
      "uid": "1400d5103edd2fa6d2d61688fee79a5a",
      "css": "ok-squared",
      "code": 59414,
      "src": "fontawesome"
    },
    {
      "uid": "5211af474d3a9848f67f945e2ccaf143",
      "css": "cancel",
      "code": 59415,
      "src": "fontawesome"
    },
    {
      "uid": "0f4cae16f34ae243a6144c18a003f2d8",
      "css": "cancel-circled",
      "code": 59416,
      "src": "fontawesome"
    },
    {
      "uid": "44e04715aecbca7f266a17d5a7863c68",
      "css": "plus",
      "code": 59424,
      "src": "fontawesome"
    },
    {
      "uid": "4ba33d2607902cf690dd45df09774cb0",
      "css": "plus-circled",
      "code": 59422,
      "src": "fontawesome"
    },
    {
      "uid": "1a5cfa186647e8c929c2b17b9fc4dac1",
      "css": "plus-squared",
      "code": 59421,
      "src": "fontawesome"
    },
    {
      "uid": "861ab06e455e2de3232ebef67d60d708",
      "css": "minus",
      "code": 59423,
      "src": "fontawesome"
    },
    {
      "uid": "eeadb020bb75d089b25d8424aabe19e0",
      "css": "minus-circled",
      "code": 59420,
      "src": "fontawesome"
    },
    {
      "uid": "f755a58fb985eeb70bd47d9b31892a34",
      "css": "minus-squared",
      "code": 59419,
      "src": "fontawesome"
    },
    {
      "uid": "17ebadd1e3f274ff0205601eef7b9cc4",
      "css": "help-circled",
      "code": 59398,
      "src": "fontawesome"
    },
    {
      "uid": "e82cedfa1d5f15b00c5a81c9bd731ea2",
      "css": "info-circled",
      "code": 59396,
      "src": "fontawesome"
    },
    {
      "uid": "e35de5ea31cd56970498e33efbcb8e36",
      "css": "link-ext-alt",
      "code": 59425,
      "src": "fontawesome"
    },
    {
      "uid": "0d6ab6194c0eddda2b8c9cedf2ab248e",
      "css": "attach",
      "code": 59405,
      "src": "fontawesome"
    },
    {
      "uid": "c1f1975c885aa9f3dad7810c53b82074",
      "css": "lock",
      "code": 59395,
      "src": "fontawesome"
    },
    {
      "uid": "657ab647f6248a6b57a5b893beaf35a9",
      "css": "lock-open",
      "code": 59418,
      "src": "fontawesome"
    },
    {
      "uid": "5b0772e9484a1a11646793a82edd622a",
      "css": "pin",
      "code": 59406,
      "src": "fontawesome"
    },
    {
      "uid": "57a0ac800df728aad61a7cf9e12f5fef",
      "css": "flag",
      "code": 59426,
      "src": "fontawesome"
    },
    {
      "uid": "44fae3bfdd54754dc68ec50d37efea37",
      "css": "pencil-squared",
      "code": 59431,
      "src": "fontawesome"
    },
    {
      "uid": "85528017f1e6053b2253785c31047f44",
      "css": "comment",
      "code": 59428,
      "src": "fontawesome"
    },
    {
      "uid": "dcedf50ab1ede3283d7a6c70e2fe32f3",
      "css": "chat",
      "code": 59427,
      "src": "fontawesome"
    },
    {
      "uid": "c76b7947c957c9b78b11741173c8349b",
      "css": "attention",
      "code": 59394,
      "src": "fontawesome"
    },
    {
      "uid": "c95735c17a10af81448c7fed98a04546",
      "css": "folder-open",
      "code": 59435,
      "src": "fontawesome"
    },
    {
      "uid": "ec488dfd1f548948c09671ca5a60ec92",
      "css": "phone-squared",
      "code": 59404,
      "src": "fontawesome"
    },
    {
      "uid": "531bc468eecbb8867d822f1c11f1e039",
      "css": "calendar",
      "code": 59399,
      "src": "fontawesome"
    },
    {
      "uid": "598a5f2bcf3521d1615de8e1881ccd17",
      "css": "clock",
      "code": 59412,
      "src": "fontawesome"
    },
    {
      "uid": "1c4068ed75209e21af36017df8871802",
      "css": "down-big",
      "code": 59400,
      "src": "fontawesome"
    },
    {
      "uid": "555ef8c86832e686fef85f7af2eb7cde",
      "css": "left-big",
      "code": 59401,
      "src": "fontawesome"
    },
    {
      "uid": "ad6b3fbb5324abe71a9c0b6609cbb9f1",
      "css": "right-big",
      "code": 59402,
      "src": "fontawesome"
    },
    {
      "uid": "95376bf082bfec6ce06ea1cda7bd7ead",
      "css": "up-big",
      "code": 59403,
      "src": "fontawesome"
    },
    {
      "uid": "ca90da02d2c6a3183f2458e4dc416285",
      "css": "ajust",
      "code": 59397,
      "src": "fontawesome"
    },
    {
      "uid": "130380e481a7defc690dfb24123a1f0c",
      "css": "circle",
      "code": 59393,
      "src": "fontawesome"
    },
    {
      "uid": "422e07e5afb80258a9c4ed1706498f8a",
      "css": "circle-empty",
      "code": 59392,
      "src": "fontawesome"
    },
    {
      "uid": "1ee2aeb352153a403df4b441a8bc9bda",
      "css": "calc",
      "code": 59429,
      "src": "fontawesome"
    },
    {
      "uid": "053a1eaf96184e74876f45bd0f4970eb",
      "css": "na",
      "code": 59430,
      "src": "meteocons"
    }
  ]
}